3 Estadística Descriptiva – Análisis de Datos en Agricultura con R y RStudio
…
Figura 3.30: Leer datos con la función read_excel()

transplante |>
  group_by(Variedad, Fecha_med) |>
  summarise(
    Media = mean(Altura),
    Desv  = sd(Altura),
    .groups = "drop"
  )

# A tibble: 35 × 4
   Variedad Fecha_med            Media  Desv
   <chr>    <dttm>               <dbl> <dbl>
 1 BN       2023-06-02 00:00:00   6.25  2.05
 2 BN       2023-06-09 00:00:00   7.98  2.63
 3 BN       2023-06-16 00:00:00  11.1   3.43
 4 BN       2023-06-23 00:00:00  17.7   5.49
 5 BN       2023-06-30 00:00:00  28.6   6.99
 6 BN       2023-07-07 00:00:00  43.7  13.2 
 7 BN       2023-07-26 00:00:00 105.   30.3 
 8 CHPA     2023-06-02 00:00:00   7.54  2.09
 9 CHPA     2023-06-09 00:00:00  10.6   1.82
10 CHPA     2023-06-16 00:00:00  14     2.47
# ℹ 25 more rows
…
